1 3 5 7 9
1 3 5 7 9
2 3 5 8 9
2 3 5 8 9
2 3 5 8 9
2 4 6 8 10
1 3 5 7 9
1 3 5 7 9
2 3 5 8 9
2 3 5 8 9
2 3 5 8 9
2 4 6 8 10
1 3 5 7 9
1 3 5 7 9
2 3 5 8 9
2 3 5 8 9
2 3 5 8 9
2 4 6 8 10
1 3 5 7 9
1 3 5 7 9
2 3 5 8 9
2 3 5 8 9
2 3 5 8 9
2 4 6 8 10
